<svg width="28" height="28" viewBox="0 0 28 28" fill="none" xmlns="http://www.w3.org/2000/svg">
<g filter="url(#filter0_d_35_44)">
<path d="M22.8333 20C20.4444 20 18.1159 19.4674 15.8478 18.4022C13.5796 17.337 11.5704 15.9296 9.82 14.18C8.06963 12.4304 6.66222 10.4211 5.59778 8.15222C4.53333 5.88333 4.00074 3.55482 4 1.16667C4 0.833334 4.11111 0.555556 4.33333 0.333333C4.55556 0.111111 4.83333 0 5.16667 0H9.66667C9.92593 0 10.1574 0.0833332 10.3611 0.25C10.5648 0.416667 10.6852 0.62963 10.7222 0.888889L11.4444 4.77778C11.4815 5.03704 11.4767 5.27333 11.43 5.48667C11.3833 5.7 11.277 5.88963 11.1111 6.05556L8.41667 8.77778C9.19444 10.1111 10.1715 11.3611 11.3478 12.5278C12.5241 13.6944 13.8156 14.7037 15.2222 15.5556L17.8333 12.9444C18 12.7778 18.2178 12.6526 18.4867 12.5689C18.7556 12.4852 19.0193 12.4622 19.2778 12.5L23.1111 13.2778C23.3704 13.3333 23.5833 13.4585 23.75 13.6533C23.9167 13.8481 24 14.0748 24 14.3333V18.8333C24 19.1667 23.8889 19.4444 23.6667 19.6667C23.4444 19.8889 23.1667 20 22.8333 20ZM7.36111 6.66667L9.19445 4.83333L8.72222 2.22222H6.25C6.34259 2.98148 6.47222 3.73148 6.63889 4.47222C6.80556 5.21296 7.0463 5.94444 7.36111 6.66667ZM21.7778 17.7222V15.2778L19.1667 14.75L17.3056 16.6111C18.0278 16.9259 18.7637 17.1759 19.5133 17.3611C20.263 17.5463 21.0178 17.6667 21.7778 17.7222Z" fill="#FAFAFA"/>
</g>
<defs>
<filter id="filter0_d_35_44" x="0" y="0" width="28" height="28" filterUnits="userSpaceOnUse" color-interpolation-filters="sRGB">
<feFlood flood-opacity="0" result="BackgroundImageFix"/>
<feColorMatrix in="SourceAlpha" type="matrix" values="0 0 0 0 0 0 0 0 0 0 0 0 0 0 0 0 0 0 127 0" result="hardAlpha"/>
<feOffset dy="4"/>
<feGaussianBlur stdDeviation="2"/>
<feComposite in2="hardAlpha" operator="out"/>
<feColorMatrix type="matrix" values="0 0 0 0 0 0 0 0 0 0 0 0 0 0 0 0 0 0 0.25 0"/>
<feBlend mode="normal" in2="BackgroundImageFix" result="effect1_dropShadow_35_44"/>
<feBlend mode="normal" in="SourceGraphic" in2="effect1_dropShadow_35_44" result="shape"/>
</filter>
</defs>
</svg>
