<svg width="28" height="23" viewBox="0 0 28 23" fill="none" xmlns="http://www.w3.org/2000/svg">
<g filter="url(#filter0_d_35_48)">
<path d="M6.5 1.875C6.15625 1.875 5.875 2.15625 5.875 2.5L5.875 3.36328L12.6133 8.89453C13.4219 9.55859 14.582 9.55859 15.3906 8.89453L22.125 3.36328V2.5C22.125 2.15625 21.8438 1.875 21.5 1.875L6.5 1.875ZM5.875 5.78906L5.875 12.5C5.875 12.8438 6.15625 13.125 6.5 13.125L21.5 13.125C21.8438 13.125 22.125 12.8437 22.125 12.5L22.125 5.78906L16.5781 10.3437C15.0781 11.5742 12.918 11.5742 11.4219 10.3437L5.875 5.78906ZM4 2.5C4 1.12109 5.12109 0 6.5 0L21.5 0C22.8789 0 24 1.12109 24 2.5L24 12.5C24 13.8789 22.8789 15 21.5 15L6.5 15C5.12109 15 4 13.8789 4 12.5L4 2.5Z" fill="#FAFAFA"/>
</g>
<defs>
<filter id="filter0_d_35_48" x="0" y="0" width="28" height="23" filterUnits="userSpaceOnUse" color-interpolation-filters="sRGB">
<feFlood flood-opacity="0" result="BackgroundImageFix"/>
<feColorMatrix in="SourceAlpha" type="matrix" values="0 0 0 0 0 0 0 0 0 0 0 0 0 0 0 0 0 0 127 0" result="hardAlpha"/>
<feOffset dy="4"/>
<feGaussianBlur stdDeviation="2"/>
<feComposite in2="hardAlpha" operator="out"/>
<feColorMatrix type="matrix" values="0 0 0 0 0 0 0 0 0 0 0 0 0 0 0 0 0 0 0.25 0"/>
<feBlend mode="normal" in2="BackgroundImageFix" result="effect1_dropShadow_35_48"/>
<feBlend mode="normal" in="SourceGraphic" in2="effect1_dropShadow_35_48" result="shape"/>
</filter>
</defs>
</svg>
